<svg id="Livello_1" data-name="Livello 1" xmlns="http://www.w3.org/2000/svg" viewBox="0 0 471.62 490">
    <defs><style>.st0{fill:#fff;}</style></defs>
    <title>logo-wabi</title>
    <!--
    <path class="cls-1" d="M20.88,159l23,4.89-18-15.48,1.75-3.74,23.49,3.94L32.54,134.08l1.77-3.79,22.4,18.65L55,152.57l-23.93-4,18.4,15.83L47.78,168l-28.65-5.27Z" transform="translate(-14.19 -5)"/>
    <path class="cls-1" d="M41.65,119.27L44,115.65l29.24,6.66L71,125.83l-8.69-2.1-6,9.3,5.44,7.14-2.12,3.29ZM59.06,123l-12.82-3.09,8,10.53Z" transform="translate(-14.19 -5)"/>
    <path class="cls-1" d="M53.09,102.39L60.83,93q3.17-3.85,6.79-3.6a6.77,6.77,0,0,1,3.9,1.6,6.32,6.32,0,0,1,2.42,3.95,7.42,7.42,0,0,1-.16,2.8,9.64,9.64,0,0,1,3.5-1.32,6.74,6.74,0,0,1,5.13,1.76,7.83,7.83,0,0,1,2.72,4.46q0.92,4.08-2.63,8.4l-7.62,9.26Zm16-.75A8.77,8.77,0,0,0,71,98.28a3.86,3.86,0,0,0-1.58-4.06,3.66,3.66,0,0,0-4.32-.61A10.4,10.4,0,0,0,62.3,96.2l-4.37,5.32,6.75,5.54ZM80,108.9q2.25-2.74,1.64-5.2a5.07,5.07,0,0,0-1.8-2.71,4.13,4.13,0,0,0-5-.52,10.56,10.56,0,0,0-2.93,2.63L67.06,109l7.66,6.3Z" transform="translate(-14.19 -5)"/>
    <path class="cls-1" d="M71.06,81.48l2.43-2.53,2.82,2.71-2.43,2.53Zm5.57,5.36,2.43-2.53L93.81,98.48,91.38,101Z" transform="translate(-14.19 -5)"/>
    <path class="cls-1" d="M87.23,65.75l3-2.42,15.76,19.19,10.93-9L119,76.13l-13.88,11.4Z" transform="translate(-14.19 -5)"/>
    <path class="cls-1" d="M113,46.15l3.61-2.36,24,18-3.5,2.29L130,58.61l-9.26,6.05,2.06,8.74-3.27,2.14Zm14.4,10.46-10.45-8,3,12.89Z" transform="translate(-14.19 -5)"/>
    <path class="cls-1" d="M130.5,35.32l10.92-5.42q4.46-2.21,7.66-.5a6.81,6.81,0,0,1,2.9,3.06,6.31,6.31,0,0,1,.59,4.59,7.32,7.32,0,0,1-1.29,2.49,9.6,9.6,0,0,1,3.73.23,6.74,6.74,0,0,1,4,3.71,7.83,7.83,0,0,1,.65,5.18q-0.83,4.1-5.85,6.59L143,60.56Zm14.94,5.89a8.73,8.73,0,0,0,3.1-2.29,3.87,3.87,0,0,0,.22-4.35,3.66,3.66,0,0,0-3.69-2.33,10.33,10.33,0,0,0-3.64,1.21l-6.17,3.06,3.89,7.82Zm6.94,11.08q3.18-1.58,3.62-4.07a5.06,5.06,0,0,0-.53-3.21,4.13,4.13,0,0,0-4.34-2.52,10.49,10.49,0,0,0-3.75,1.2l-6.85,3.4L144.93,56Z" transform="translate(-14.19 -5)"/>
    <path class="cls-1" d="M179.89,19a15.56,15.56,0,0,1,5.79,8.13,16.76,16.76,0,0,1,.42,11q-1.94,5.87-8.53,8.16-6.14,2.14-11.07-.7a16.22,16.22,0,0,1-6.57-8.81,16.65,16.65,0,0,1-.53-10.18q1.73-6.12,8.47-8.47Q174.93,15.64,179.89,19Zm2.71,18.08a15.46,15.46,0,0,0-.6-8.6,11.92,11.92,0,0,0-5.09-6.72,8.88,8.88,0,0,0-7.71-.53,9.27,9.27,0,0,0-5.76,5.18q-1.62,3.75.29,9.28a13,13,0,0,0,4.84,6.69q3.29,2.26,8.31.52Q181.65,41.24,182.6,37.08Z" transform="translate(-14.19 -5)"/>
    <path class="cls-1" d="M188.91,12.36l12.55-2.57a12.57,12.57,0,0,1,5.3-.13q4.19,1,5.16,5.74a7.48,7.48,0,0,1-.19,4.27,7.5,7.5,0,0,1-2.35,3.12A5.78,5.78,0,0,1,212.18,24a6.32,6.32,0,0,1,1.63,3.29L214.69,31a11.93,11.93,0,0,0,.75,2.29A2.36,2.36,0,0,0,217,34.72l0.12,0.62-4.58.94a3.51,3.51,0,0,1-.49-0.86,16.81,16.81,0,0,1-.64-2.14l-1.17-4.56c-0.46-1.79-1.36-2.87-2.7-3.23a8.06,8.06,0,0,0-3.37.17l-8.27,1.7,2.43,11.84-3.74.77Zm14.75,10.16a7,7,0,0,0,3.83-1.88q1.28-1.36.72-4.1-0.61-3-2.91-3.6a6.82,6.82,0,0,0-3.1.05l-8.88,1.83,1.93,9.43Z" transform="translate(-14.19 -5)"/>
    <path class="cls-1" d="M227.16,6.12l4.3-.35L243.94,33l-4.17.34-3.61-8.17-11,.9-2.36,8.66-3.9.31Zm7.66,16.07-5.33-12.06L226,22.91Z" transform="translate(-14.19 -5)"/>
    <path class="cls-1" d="M264.78,5.4l-0.06,3.36-9.5-.17-0.44,24.82-3.86-.06,0.44-24.83-9.5-.17L241.93,5Z" transform="translate(-14.19 -5)"/>
    <path class="cls-1" d="M292.66,12.93a15.54,15.54,0,0,1,1.47,9.87,16.73,16.73,0,0,1-4.6,10q-4.4,4.36-11.29,3.41-6.45-.89-9.55-5.65a16.23,16.23,0,0,1-1.86-10.84,16.65,16.65,0,0,1,4.15-9.3q4.33-4.68,11.4-3.7Q289.76,7.68,292.66,12.93Zm-5.79,17.34a15.39,15.39,0,0,0,3.36-7.94A11.87,11.87,0,0,0,288.76,14a8.88,8.88,0,0,0-6.63-4,9.26,9.26,0,0,0-7.48,2q-3.15,2.6-3.95,8.41A13,13,0,0,0,272,28.62q1.91,3.51,7.17,4.24Q284.15,33.55,286.87,30.27Z" transform="translate(-14.19 -5)"/>
    <path class="cls-1" d="M303.76,11.12l12.35,3.41a12.64,12.64,0,0,1,4.79,2.3q3.28,2.78,2,7.46A7.47,7.47,0,0,1,320.77,28a7.56,7.56,0,0,1-3.51,1.72,5.75,5.75,0,0,1,1.93,2.36,6.37,6.37,0,0,1,0,3.67l-0.88,3.68a11.7,11.7,0,0,0-.38,2.38,2.36,2.36,0,0,0,.73,2l-0.17.61-4.52-1.25a3.85,3.85,0,0,1,0-1,20,20,0,0,1,.41-2.2l1-4.59q0.6-2.7-.94-4.1a8.11,8.11,0,0,0-3.08-1.39l-8.14-2.25-3.22,11.65-3.68-1Zm8.52,15.75a7.09,7.09,0,0,0,4.27.06c1.17-.42,2-1.53,2.49-3.33s0.22-3.44-1-4.52a6.82,6.82,0,0,0-2.78-1.37l-8.74-2.41L304,24.59Z" transform="translate(-14.19 -5)"/>
    <path class="cls-1" d="M333,20l3.61,1.35-9.87,26.4-3.61-1.35Z" transform="translate(-14.19 -5)"/>
    <path class="cls-1" d="M371.66,40.38a10,10,0,0,1-.19,7.18L368.2,45.8a7.75,7.75,0,0,0-.13-5,7.73,7.73,0,0,0-3.83-3.88,8.28,8.28,0,0,0-7.2-.56q-3.61,1.38-6.48,6.71a13.24,13.24,0,0,0-1.82,8.15,7.89,7.89,0,0,0,4.5,5.93,7.12,7.12,0,0,0,7.1.14A12.43,12.43,0,0,0,364,54.18l3.28,1.77a12.79,12.79,0,0,1-6.42,5,11.55,11.55,0,0,1-9.6-1.06,11.72,11.72,0,0,1-5.76-6.49q-2-5.53,1.95-12.76a15.62,15.62,0,0,1,7.73-7.46,11.85,11.85,0,0,1,10.62.8Q370.43,36.52,371.66,40.38Z" transform="translate(-14.19 -5)"/>
    <path class="cls-1" d="M382.19,44.52l10.52,7.33a12.58,12.58,0,0,1,3.74,3.76q2.17,3.7-.62,7.69a7.44,7.44,0,0,1-3.23,2.8,7.55,7.55,0,0,1-3.88.45,5.76,5.76,0,0,1,1,2.87,6.24,6.24,0,0,1-1.27,3.44L386.43,76a11.69,11.69,0,0,0-1.15,2.12,2.37,2.37,0,0,0,0,2.12l-0.36.52-3.84-2.68a3.26,3.26,0,0,1,.28-0.94,17.13,17.13,0,0,1,1.12-1.94l2.5-4c1-1.56,1.14-3,.48-4.18A8.15,8.15,0,0,0,383,64.74l-6.93-4.83-6.91,9.91-3.13-2.19ZM385,62.21a7,7,0,0,0,4,1.48q1.87,0,3.46-2.31,1.73-2.47.61-4.58a6.79,6.79,0,0,0-2.16-2.21l-7.44-5.19-5.51,7.9Z" transform="translate(-14.19 -5)"/>
    <path class="cls-1" d="M407.46,63.22L422.54,77l-2.33,2.55L407.88,68.28l-5.79,6.31L413.49,85l-2.21,2.41L399.89,77l-6.46,7L406,95.54,403.71,98,388.42,84Z" transform="translate(-14.19 -5)"/>
    <path class="cls-1" d="M433.42,89l2.81,3.27-14.68,26.15-2.73-3.17,4.48-7.74-7.22-8.38-8.4,3.19-2.55-3Zm-8.47,15.65,6.6-11.41L419.17,98Z" transform="translate(-14.19 -5)"/>
    <path class="cls-1" d="M456.19,119.08L453.44,121,448,113.23l-20.34,14.24-2.21-3.16,20.34-14.24-5.45-7.78,2.75-1.93Z" transform="translate(-14.19 -5)"/>
    <path class="cls-1" d="M459.11,124.34l2,3.33L436.79,142l-2-3.32Z" transform="translate(-14.19 -5)"/>
    <path class="cls-1" d="M466.05,136.49l-18.11,17.72L473,151l1.87,3.86-29.86,3-1.76-3.65,20.93-21.49Z" transform="translate(-14.19 -5)"/>
    <path class="cls-1" d="M477,160.92l1.38,3.6L452.09,174.6l-1.38-3.6Z" transform="translate(-14.19 -5)"/>
    <path class="cls-1" d="M485.81,313.56l-3.64,11.64q-1.48,4.76-4.93,5.88a6.8,6.8,0,0,1-4.22,0,6.38,6.38,0,0,1-3.73-2.75,7.57,7.57,0,0,1-.89-2.66,9.84,9.84,0,0,1-2.74,2.55,6.76,6.76,0,0,1-5.42.29,7.82,7.82,0,0,1-4.19-3.11q-2.4-3.44-.71-8.78l3.57-11.44Zm-27.39,4.07q-1.06,3.38.44,5.43a5,5,0,0,0,2.68,1.83,4.13,4.13,0,0,0,4.81-1.4,10.61,10.61,0,0,0,1.73-3.54l2.28-7.3-9.47-3Zm12.81,2.65a8.8,8.8,0,0,0-.5,3.82,3.87,3.87,0,0,0,3,3.17,3.66,3.66,0,0,0,4.24-1.06,10.39,10.39,0,0,0,1.64-3.46l2.06-6.57-8.33-2.6Z" transform="translate(-14.19 -5)"/>
    <path class="cls-1" d="M476.54,341.48l-5.29,11.67a12.62,12.62,0,0,1-3,4.36q-3.26,2.8-7.68.8a6.94,6.94,0,0,1-4.49-6.4,5.78,5.78,0,0,1-2.63,1.53,6.3,6.3,0,0,1-3.62-.62l-3.49-1.43a11.85,11.85,0,0,0-2.3-.75,2.37,2.37,0,0,0-2.08.41l-0.58-.26,1.93-4.27a3.44,3.44,0,0,1,1,.11,17.26,17.26,0,0,1,2.11.75l4.37,1.73q2.58,1,4.2-.29a8,8,0,0,0,1.85-2.83l3.49-7.69-11-5,1.58-3.48Zm-16.88,6a7.09,7.09,0,0,0-.73,4.21q0.35,1.83,2.9,3,2.74,1.24,4.62-.24a6.71,6.71,0,0,0,1.78-2.53L472,343.6l-8.78-4Z" transform="translate(-14.19 -5)"/>
    <path class="cls-1" d="M463.4,369.12L461,373H434.28l19.38,12L451.75,388l-24-14.8,2.24-3.65,26.85-.2-19.36-11.94,1.91-3.11Z" transform="translate(-14.19 -5)"/>
    <path class="cls-1" d="M428.62,393.07l-6.15,7.42-2.73-2.26,6.15-7.42Z" transform="translate(-14.19 -5)"/>
    <path class="cls-1" d="M421.6,424.39L413.26,432a10.58,10.58,0,0,1-9.37,2.93,15.34,15.34,0,0,1-8.5-5.17,19.18,19.18,0,0,1-4.22-7.12,10.26,10.26,0,0,1,3.16-11.53l8.31-7.55ZM397.05,413a9.75,9.75,0,0,0-2,2.39,6.86,6.86,0,0,0-.71,4.52,11.85,11.85,0,0,0,1.76,4.31,16.92,16.92,0,0,0,1.78,2.38q3.52,3.87,7,4.65t6.8-2.26l4.9-4.46-14.56-16Z" transform="translate(-14.19 -5)"/>
    <path class="cls-1" d="M385.2,430.62a7.88,7.88,0,0,0-3.14-2.56q-3.1-1.24-6.88,1.43a10.88,10.88,0,0,0-2.73,2.68q-2,2.87-.24,5.38a3.73,3.73,0,0,0,3,1.88,13.71,13.71,0,0,0,4.58-1.18l3.52-1.43a16.46,16.46,0,0,1,5.27-1.43,6,6,0,0,1,5.17,2.81,8.25,8.25,0,0,1,1.5,6.57q-0.69,3.46-4.52,6.17a12.35,12.35,0,0,1-7.23,2.47q-3.69,0-6.41-3.85l2.93-2.07a7.26,7.26,0,0,0,3,2.16q2.64,0.84,5.92-1.47,2.65-1.86,3-3.84a4.51,4.51,0,0,0-.74-3.51,3.25,3.25,0,0,0-3.11-1.52,24.07,24.07,0,0,0-4.94,1.61l-3.65,1.47a11.56,11.56,0,0,1-4.52,1,6.77,6.77,0,0,1-5.43-3.19q-2.69-3.83-1.14-7.39a14.58,14.58,0,0,1,5.15-6.09q4.19-3,8.11-2.43a9.18,9.18,0,0,1,6.49,4.28Z" transform="translate(-14.19 -5)"/>
    <path class="cls-1" d="M357.46,469.12q-4.69,0-8.1-4.46l3.34-1.77a6.88,6.88,0,0,0,4.58,2.67,9.46,9.46,0,0,0,5.39-1.26,8.31,8.31,0,0,0,4.33-5.61q0.94-3.82-1.78-9a14.19,14.19,0,0,0-5.74-6.22q-3.38-1.78-7.71.5a8.89,8.89,0,0,0-4.44,4.86q-1.14,3.1,1.13,7.51l7.8-4.13,1.48,2.8-10.94,5.79-7.05-13.33,2.18-1.15,2.51,2.78a14.11,14.11,0,0,1,1.6-4.19,12.44,12.44,0,0,1,4.9-4.19,12.12,12.12,0,0,1,9-1.1q5.32,1.78,8.64,8.06t1.92,11.72a12,12,0,0,1-6.35,7.88A14.1,14.1,0,0,1,357.46,469.12Z" transform="translate(-14.19 -5)"/>
    <path class="cls-1" d="M330,465.05L321,468.26l-1.18-3.35,9.08-3.2Z" transform="translate(-14.19 -5)"/>
    <path class="cls-1" d="M308.15,488.38l-5.37,1-12.44-21.88-3.43,24.92-5.33,1-5.3-27.68,3.57-.69L283,481.44q0.17,0.85.5,2.81t0.77,4.21l3.43-24.86,3.72-.71,12.45,21.82-0.16-.85c-0.13-.68-0.34-1.7-0.65-3.09s-0.52-2.4-.65-3.05l-3.12-16.34,3.58-.69Z" transform="translate(-14.19 -5)"/>
    <path class="cls-1" d="M272.6,494.39l-11.25.59a10.57,10.57,0,0,1-9.1-3.65,15.36,15.36,0,0,1-3.32-9.38,19.31,19.31,0,0,1,1.23-8.19,10.29,10.29,0,0,1,9.74-6.93l11.21-.59ZM260.78,470a10.07,10.07,0,0,0-3.09.57,6.86,6.86,0,0,0-3.41,3.06,12,12,0,0,0-1.36,4.45,17,17,0,0,0-.12,3q0.28,5.23,2.46,8t6.7,2.55l6.62-.35-1.14-21.62Z" transform="translate(-14.19 -5)"/>
    <path class="cls-1" d="M233.65,494.86l-4.3-.3-8.27-28.83,4.18,0.29,2.35,8.62,11,0.76,3.63-8.21,3.9,0.27Zm-5.17-17,3.47,12.72,5.36-12.11Z" transform="translate(-14.19 -5)"/>
    <path class="cls-1" d="M208.75,476.41l-9.45-1.87,0.69-3.49,9.45,1.88Z" transform="translate(-14.19 -5)"/>
    <path class="cls-1" d="M175.7,484.6l3.06-23.31-14,19.21-3.86-1.45L163,455.33l-13,19.62L146,473.47l16.83-23.79,3.76,1.41-2.11,24.17,14.33-19.59,3.75,1.41-3,29Z" transform="translate(-14.19 -5)"/>
    <path class="cls-1" d="M140,470.07l-17.94-9.81,1.65-3,14.68,8,4.1-7.51-13.57-7.42,1.57-2.87,13.57,7.42,4.58-8.39-14.93-8.16,1.61-2.95,18.2,10Z" transform="translate(-14.19 -5)"/>
    <path class="cls-1" d="M115.68,456.16l-10-7q-4.09-2.85-4.12-6.48a6.77,6.77,0,0,1,1.29-4,6.37,6.37,0,0,1,3.75-2.72,7.5,7.5,0,0,1,2.8-.06,9.66,9.66,0,0,1-1.6-3.38,6.79,6.79,0,0,1,1.35-5.26,7.87,7.87,0,0,1,4.23-3.06q4-1.24,8.59,2L131.8,433Zm-2-15.94a8.76,8.76,0,0,0-3.5-1.62,3.88,3.88,0,0,0-3.93,1.89,3.68,3.68,0,0,0-.27,4.36,10.26,10.26,0,0,0,2.81,2.61l5.64,3.94,5-7.16Zm6.38-11.4q-2.91-2-5.31-1.22a5.06,5.06,0,0,0-2.55,2,4.14,4.14,0,0,0-.12,5,10.57,10.57,0,0,0,2.86,2.72l6.27,4.38,5.68-8.14Z" transform="translate(-14.19 -5)"/>
    <path class="cls-1" d="M87.12,413.36l-6.71-6.92L83,404l6.7,6.91Z" transform="translate(-14.19 -5)"/>
    <path class="cls-1" d="M46.8,385.73a10,10,0,0,1,3.29-6.38l2.19,3a7.09,7.09,0,0,0-.28,9.69,8.3,8.3,0,0,0,6.25,3.63Q62.09,396,67,392.45a13.2,13.2,0,0,0,5.18-6.55,7.87,7.87,0,0,0-1.48-7.29,7.13,7.13,0,0,0-6.33-3.21,12.55,12.55,0,0,0-4.64,1.25l-2.18-3a12.78,12.78,0,0,1,8-1.74A11.55,11.55,0,0,1,73.68,377a11.73,11.73,0,0,1,2.38,8.35q-0.65,5.82-7.3,10.65a15.65,15.65,0,0,1-10.2,3.36A11.85,11.85,0,0,1,49.34,394Q46.23,389.75,46.8,385.73Z" transform="translate(-14.19 -5)"/>
    <path class="cls-1" d="M31.46,355.11a15.5,15.5,0,0,1,7.1-7,16.75,16.75,0,0,1,10.76-2.16q6.11,1,9.41,7.11,3.09,5.73,1.07,11A16.2,16.2,0,0,1,52.15,372a16.7,16.7,0,0,1-10,2.15q-6.33-.74-9.71-7Q28.94,360.55,31.46,355.11Zm17.41-5.56a15.46,15.46,0,0,0-8.4,2,11.89,11.89,0,0,0-5.82,6.09,8.86,8.86,0,0,0,.7,7.7,9.26,9.26,0,0,0,6,4.86q4,1,9.11-1.77a13,13,0,0,0,5.83-5.84q1.71-3.61-.81-8.29Q53.13,349.82,48.87,349.55Z" transform="translate(-14.19 -5)"/>
    <path class="cls-1" d="M23.54,347.77l-1.89-5.13,19.56-15.85-25.14.69-1.88-5.1,26.45-9.74,1.26,3.42-15.61,5.75-2.69,1c-1.26.44-2.6,0.91-4,1.44l25.09-.67L46,327.09l-19.5,15.84,0.81-.3c0.65-.24,1.63-0.62,2.94-1.14s2.28-.91,2.9-1.13l15.61-5.75L50,338Z" transform="translate(-14.19 -5)"/>
    -->
    <polygon class="st0" points="178.13 282.4 145.37 141.5 99.87 141.5 154.66 348.5 193.71 348.5 178.45 282.4 178.13 282.4"/>
    <polygon class="st0" points="257.25 141.5 214.65 141.5 189.9 238.52 207.45 321.08 235.23 207.6 235.8 207.6 264.36 322.33 281.78 240.4 257.25 141.5"/>
    <polygon class="st0" points="371.75 141.5 327.1 141.5 293.19 284.14 293.18 284.14 278.32 348.5 316.1 348.5 371.75 141.5"/>
</svg>